{
    "total": 98,
    "per_page": "10",
    "current_page": 1,
    "last_page": 10,
    "next_page_url": "https://catfact.ninja/breeds?page=2",
    "prev_page_url": null,
    "from": 1,
    "to": 10,
    "cat-breeds": [
      {
        "breed": "Abyssinian",
        "country": "Ethiopia",
        "origin": "Natural/Standard",
        "coat": "Short",
        "pattern": "Ticked"
      },
      {
        "breed": "Aegean",
        "country": "Greece",
        "origin": "Natural/Standard",
        "coat": "Semi-long",
        "pattern": "Bi- or tri-colored"
      },
      {
        "breed": "American Curl",
        "country": "United States",
        "origin": "Mutation",
        "coat": "Short/Long",
        "pattern": "All"
      },
      {
        "breed": "American Bobtail",
        "country": "United States",
        "origin": "Mutation",
        "coat": "Short/Long",
        "pattern": "All"
      },
      {
        "breed": "American Shorthair",
        "country": "United States",
        "origin": "Natural",
        "coat": "Short",
        "pattern": "All but colorpoint"
      },
      {
        "breed": "American Wirehair",
        "country": "United States",
        "origin": "Mutation",
        "coat": "Rex",
        "pattern": "All but colorpoint"
      },
      {
        "breed": "Arabian Mau",
        "country": "Arabian Peninsula",
        "origin": "Natural",
        "coat": "Short",
        "pattern": ""
      },
      {
        "breed": "Australian Mist",
        "country": "Australia",
        "origin": "Crossbreed",
        "coat": "Short",
        "pattern": "Spotted and Classic tabby"
      },
      {
        "breed": "Asian",
        "country": "developed in the United Kingdom (founding stock from Asia)",
        "origin": "",
        "coat": "Short",
        "pattern": "Evenly solid"
      },
      {
        "breed": "Asian Semi-longhair",
        "country": "United Kingdom",
        "origin": "Crossbreed",
        "coat": "Semi-long",
        "pattern": "Solid"
      }
    ]
  }